qname	sname	qcount	taai	aai	fil_match	pfil_match	hitspp	match	pmatch
X17403	X17403	186	100.0	100.0	186	1.0	3.086	186	1.0
AY446894	AY446894	168	100.0	100.0	168	1.0	3.131	168	1.0
AF303741	AF303741	468	100.0	100.0	468	1.0	2.271	468	1.0
AY509253	AY509253	116	100.0	100.0	116	1.0	2.086	116	1.0
query_NC_016071	query_NC_016071	244	100.0	100.0	244	1.0	1.504	244	1.0
AY653733	AY653733	909	100.0	100.0	909	1.0	36.27	909	1.0
AF243438	AF243438	90	100.0	100.0	90	1.0	1.356	90	1.0
AY261363	AY261363	158	100.0	100.0	158	1.0	6.614	158	1.0
AF158101	AF158101	272	100.0	100.0	272	1.0	1.949	272	1.0
AY261360	AY261360	158	100.0	100.0	158	1.0	6.392	158	1.0
AY261366	AY261366	159	100.0	100.0	159	1.0	5.836	159	1.0
AY261363	AY261366	158	92.774	97.074	151	0.956	6.196	151	0.956
AY261366	AY261363	159	92.136	97.017	151	0.95	6.157	151	0.95
AY261360	AY261366	158	84.475	89.531	149	0.943	6.165	149	0.943
AY261366	AY261360	159	84.06	89.674	149	0.937	6.17	149	0.937
AY261363	AY261360	158	82.406	89.152	146	0.924	6.563	146	0.924
AY261360	AY261363	158	82.398	89.128	146	0.924	6.462	146	0.924
AY446894	X17403	168	78.686	96.284	136	0.81	3.06	138	0.821
X17403	AY446894	186	70.973	96.262	136	0.731	2.774	138	0.742
AY261360	AY653733	158	19.098	0.0	0	0.0	5.671	73	0.462
AY261363	AY653733	158	19.063	0.0	0	0.0	6.063	73	0.462
AY509253	AY653733	116	18.963	0.0	0	0.0	2.871	57	0.491
AY261366	AY653733	159	18.41	42.857	1	0.006	6.05	71	0.447
AF243438	AY653733	90	15.949	0.0	0	0.0	2.133	40	0.444
AF158101	AY653733	272	12.799	0.0	0	0.0	2.908	89	0.327
query_NC_016071	AY653733	244	12.702	53.333	1	0.004	3.016	77	0.316
AY261366	AF303741	159	11.587	0.0	0	0.0	0.742	53	0.333
AY261360	AF303741	158	11.008	0.0	0	0.0	0.791	50	0.316
AF243438	X17403	90	10.758	40.756	1	0.011	0.767	32	0.356
AY446894	AY653733	168	10.625	0.0	0	0.0	1.673	51	0.304
AY261363	AF303741	158	10.591	0.0	0	0.0	0.696	48	0.304
AF243438	AY446894	90	9.521	40.756	1	0.011	0.756	29	0.322
AF303741	AY653733	468	9.508	40.94	1	0.002	3.038	109	0.233
AY509253	AF303741	116	9.33	0.0	0	0.0	0.862	29	0.25
X17403	AY653733	186	9.314	0.0	0	0.0	1.645	51	0.274
AY261366	AF158101	159	9.251	0.0	0	0.0	0.579	41	0.258
AF243438	AF303741	90	8.561	0.0	0	0.0	0.522	22	0.244
AY261363	AF158101	158	8.466	0.0	0	0.0	0.563	39	0.247
AY509253	AY261366	116	8.207	0.0	0	0.0	0.69	27	0.233
AY261360	AF158101	158	8.157	0.0	0	0.0	0.513	38	0.241
AY509253	AF158101	116	8.141	0.0	0	0.0	0.44	28	0.241
query_NC_016071	AF158101	244	8.085	43.675	3	0.012	0.586	55	0.225
X17403	AF303741	186	8.018	54.762	1	0.005	0.5	38	0.204
AY509253	AY261363	116	7.752	0.0	0	0.0	0.655	26	0.224
AF243438	query_NC_016071	90	7.528	0.0	0	0.0	0.322	19	0.211
AY446894	AF303741	168	7.269	54.762	1	0.006	0.482	31	0.185
AF158101	query_NC_016071	272	7.252	43.675	3	0.011	0.474	55	0.202
AY509253	AY261360	116	7.13	0.0	0	0.0	0.612	25	0.216
AY509253	query_NC_016071	116	7.098	0.0	0	0.0	0.379	24	0.207
AF158101	AF303741	272	6.98	0.0	0	0.0	0.643	51	0.188
query_NC_016071	AF303741	244	6.763	0.0	0	0.0	0.648	45	0.184
AF243438	AF158101	90	6.548	0.0	0	0.0	0.433	16	0.178
AY509253	X17403	116	6.22	0.0	0	0.0	0.483	23	0.198
AY509253	AY446894	116	6.139	0.0	0	0.0	0.483	22	0.19
AY261366	AY509253	159	5.863	0.0	0	0.0	0.503	27	0.17
AY261363	AY509253	158	5.689	0.0	0	0.0	0.506	26	0.165
AY446894	AF158101	168	5.572	0.0	0	0.0	0.315	25	0.149
AF243438	AY261360	90	5.441	0.0	0	0.0	0.356	15	0.167
AF158101	AY261366	272	5.353	0.0	0	0.0	0.548	41	0.151
AY261360	AY509253	158	5.262	0.0	0	0.0	0.437	25	0.158
X17403	AF243438	186	5.207	40.756	1	0.005	0.419	32	0.172
AY446894	AF243438	168	5.092	40.756	1	0.006	0.488	29	0.173
X17403	AF158101	186	4.97	0.0	0	0.0	0.312	24	0.129
AY261360	query_NC_016071	158	4.894	0.0	0	0.0	0.361	22	0.139
AF158101	AY261363	272	4.859	0.0	0	0.0	0.551	39	0.143
AY653733	AF303741	909	4.851	40.94	1	0.001	0.8	109	0.12
AY261366	query_NC_016071	159	4.837	0.0	0	0.0	0.327	22	0.138
AF158101	AY261360	272	4.743	0.0	0	0.0	0.518	38	0.14
AY446894	query_NC_016071	168	4.733	0.0	0	0.0	0.256	21	0.125
AY261363	query_NC_016071	158	4.607	0.0	0	0.0	0.342	22	0.139
X17403	query_NC_016071	186	4.35	0.0	0	0.0	0.253	22	0.118
AY261363	AY446894	158	4.349	0.0	0	0.0	0.373	21	0.133
AY446894	AY509253	168	4.239	0.0	0	0.0	0.31	22	0.131
AY446894	AY261363	168	4.133	0.0	0	0.0	0.31	21	0.125
AF303741	AF158101	468	4.016	0.0	0	0.0	0.438	51	0.109
AF243438	AY509253	90	3.951	0.0	0	0.0	0.444	11	0.122
AF303741	AY261366	468	3.912	0.0	0	0.0	0.526	53	0.113
X17403	AY509253	186	3.879	0.0	0	0.0	0.285	23	0.124
AY653733	AF158101	909	3.81	0.0	0	0.0	0.473	89	0.098
AF243438	AY261366	90	3.758	0.0	0	0.0	0.3	11	0.122
AY261366	AY446894	159	3.701	0.0	0	0.0	0.434	18	0.113
AF303741	AY261360	468	3.699	0.0	0	0.0	0.551	50	0.107
AF303741	AY261363	468	3.558	0.0	0	0.0	0.513	48	0.103
AF303741	query_NC_016071	468	3.54	0.0	0	0.0	0.297	45	0.096
AY446894	AY261366	168	3.503	0.0	0	0.0	0.286	18	0.107
AF158101	AY509253	272	3.472	0.0	0	0.0	0.449	28	0.103
AF158101	AY446894	272	3.431	0.0	0	0.0	0.368	25	0.092
query_NC_016071	AY509253	244	3.414	0.0	0	0.0	0.439	24	0.098
AY653733	query_NC_016071	909	3.394	0.0	0	0.0	0.433	77	0.085
AF158101	X17403	272	3.388	0.0	0	0.0	0.393	24	0.088
query_NC_016071	X17403	244	3.316	0.0	0	0.0	0.43	22	0.09
query_NC_016071	AY446894	244	3.306	0.0	0	0.0	0.459	21	0.086
AY653733	AY261360	909	3.304	0.0	0	0.0	0.985	73	0.08
AY653733	AY261363	909	3.299	0.0	0	0.0	1.025	73	0.08
AF243438	AY261363	90	3.274	0.0	0	0.0	0.333	9	0.1
AY653733	AY261366	909	3.231	42.857	1	0.001	1.03	71	0.078
AF303741	X17403	468	3.187	54.762	1	0.002	0.472	38	0.081
query_NC_016071	AY261360	244	3.169	0.0	0	0.0	0.471	22	0.09
query_NC_016071	AY261366	244	3.152	0.0	0	0.0	0.447	22	0.09
AY261360	AF243438	158	3.121	0.0	0	0.0	0.278	15	0.095
AY509253	AF243438	116	3.057	0.0	0	0.0	0.31	11	0.095
query_NC_016071	AY261363	244	2.983	0.0	0	0.0	0.471	22	0.09
AY261363	X17403	158	2.883	0.0	0	0.0	0.386	15	0.095
query_NC_016071	AF243438	244	2.834	0.0	0	0.0	0.307	19	0.078
AY261360	AY446894	158	2.809	0.0	0	0.0	0.373	13	0.082
AY261366	X17403	159	2.672	0.0	0	0.0	0.434	14	0.088
AF303741	AY446894	468	2.607	54.762	1	0.002	0.429	31	0.066
AY446894	AY261360	168	2.604	0.0	0	0.0	0.244	13	0.077
X17403	AY261363	186	2.475	0.0	0	0.0	0.296	15	0.081
AY653733	AY509253	909	2.4	0.0	0	0.0	0.409	57	0.063
AF303741	AY509253	468	2.356	0.0	0	0.0	0.519	29	0.062
AY261360	X17403	158	2.35	0.0	0	0.0	0.367	12	0.076
X17403	AY261366	186	2.28	0.0	0	0.0	0.285	14	0.075
AF158101	AF243438	272	2.167	0.0	0	0.0	0.312	16	0.059
AY261366	AF243438	159	2.098	0.0	0	0.0	0.245	11	0.069
X17403	AY261360	186	1.989	0.0	0	0.0	0.247	12	0.065
AY653733	AY446894	909	1.975	0.0	0	0.0	0.278	51	0.056
AY653733	X17403	909	1.904	0.0	0	0.0	0.297	51	0.056
AY261363	AF243438	158	1.839	0.0	0	0.0	0.259	9	0.057
AF303741	AF243438	468	1.642	0.0	0	0.0	0.299	22	0.047
AY653733	AF243438	909	1.58	0.0	0	0.0	0.26	40	0.044
