qname	sname	qcount	taai	aai	fil_match	pfil_match	hitspp	match	pmatch
MH979674	MH979674	56	100.0	100.0	56	1.0	1.714	56	1.0
AB854109	AB854109	50	100.0	100.0	50	1.0	1.62	50	1.0
MK892842	MK892842	47	100.0	100.0	47	1.0	1.66	47	1.0
MH622912	MH622912	7	100.0	100.0	7	1.0	1.286	7	1.0
MN844877	query_MN844877	50	100.0	100.0	50	1.0	1.7	50	1.0
MN844877	MN844877	50	100.0	100.0	50	1.0	1.7	50	1.0
KY117485	KY117485	56	100.0	100.0	56	1.0	1.714	56	1.0
AM265639	AM265639	57	100.0	100.0	57	1.0	1.667	57	1.0
FN263372	FN263372	53	100.0	100.0	53	1.0	1.755	53	1.0
MK962640	MK962640	50	100.0	100.0	50	1.0	1.8	50	1.0
query_MN844877	query_MN844877	50	100.0	100.0	50	1.0	1.7	50	1.0
query_MN844877	MN844877	50	100.0	100.0	50	1.0	1.7	50	1.0
FN263372	MH979674	53	87.942	89.633	52	0.981	1.774	52	0.981
MH979674	FN263372	56	83.257	89.662	52	0.929	1.821	52	0.929
AB854109	KY117485	50	38.0	59.347	28	0.56	1.52	34	0.68
KY117485	AB854109	56	33.851	59.942	27	0.482	1.464	34	0.607
query_MN844877	AB854109	50	25.561	50.123	16	0.32	1.14	28	0.56
MN844877	AB854109	50	25.561	50.123	16	0.32	1.14	28	0.56
AB854109	query_MN844877	50	25.274	50.255	16	0.32	1.26	28	0.56
AB854109	MN844877	50	25.274	50.255	16	0.32	1.26	28	0.56
MN844877	KY117485	50	22.546	48.741	18	0.36	1.3	24	0.48
query_MN844877	KY117485	50	22.546	48.741	18	0.36	1.3	24	0.48
MN844877	AM265639	50	21.952	47.275	12	0.24	1.42	25	0.5
query_MN844877	AM265639	50	21.952	47.275	12	0.24	1.42	25	0.5
FN263372	AM265639	53	20.233	47.852	16	0.302	1.453	23	0.434
KY117485	MN844877	56	20.142	48.677	18	0.321	1.179	24	0.429
KY117485	query_MN844877	56	20.142	48.677	18	0.321	1.179	24	0.429
AM265639	query_MN844877	57	19.23	47.184	12	0.211	1.491	25	0.439
AM265639	MN844877	57	19.23	47.184	12	0.211	1.491	25	0.439
AM265639	FN263372	57	18.772	47.568	16	0.281	1.474	23	0.404
MK962640	MH979674	50	18.252	45.809	5	0.1	1.3	23	0.46
MH979674	AM265639	56	17.951	48.491	13	0.232	1.25	22	0.393
MK962640	query_MN844877	50	17.888	49.764	11	0.22	1.38	20	0.4
MK962640	MN844877	50	17.888	49.764	11	0.22	1.38	20	0.4
MN844877	MK962640	50	17.859	49.529	11	0.22	1.34	20	0.4
query_MN844877	MK962640	50	17.859	49.529	11	0.22	1.34	20	0.4
AM265639	MH979674	57	17.636	48.6	13	0.228	1.351	22	0.386
MK962640	FN263372	50	17.593	46.169	5	0.1	1.2	22	0.44
KY117485	MH979674	56	17.115	47.888	5	0.089	1.268	24	0.429
MH979674	KY117485	56	17.042	49.382	4	0.071	1.214	24	0.429
AB854109	MK962640	50	16.733	49.403	9	0.18	1.12	18	0.36
MN844877	MH979674	50	16.691	46.663	11	0.22	1.18	20	0.4
query_MN844877	MH979674	50	16.691	46.663	11	0.22	1.18	20	0.4
MN844877	FN263372	50	16.63	45.789	10	0.2	1.18	20	0.4
query_MN844877	FN263372	50	16.63	45.789	10	0.2	1.18	20	0.4
FN263372	MK962640	53	16.502	45.938	5	0.094	1.189	22	0.415
AB854109	AM265639	50	16.493	45.67	10	0.2	1.22	22	0.44
MK962640	AB854109	50	16.394	49.912	8	0.16	1.22	18	0.36
MH979674	MK962640	56	16.311	45.606	5	0.089	1.268	23	0.411
AB854109	FN263372	50	16.302	47.468	7	0.14	1.08	20	0.4
FN263372	MN844877	53	15.692	45.915	10	0.189	1.321	20	0.377
FN263372	query_MN844877	53	15.692	45.915	10	0.189	1.321	20	0.377
MH622912	AB854109	7	15.667	0.0	0	0.0	0.571	3	0.429
MK962640	AM265639	50	15.361	44.636	7	0.14	1.34	18	0.36
FN263372	AB854109	53	15.178	46.207	7	0.132	1.151	20	0.377
KY117485	AM265639	56	14.975	46.805	10	0.179	1.339	20	0.357
MH979674	query_MN844877	56	14.807	46.257	11	0.196	1.125	20	0.357
MH979674	MN844877	56	14.807	46.257	11	0.196	1.125	20	0.357
AM265639	KY117485	57	14.712	46.971	10	0.175	1.333	20	0.351
AB854109	MH979674	50	14.472	47.478	7	0.14	1.1	18	0.36
AM265639	AB854109	57	14.45	45.835	10	0.175	1.158	22	0.386
FN263372	KY117485	53	14.338	49.274	4	0.075	1.245	20	0.377
KY117485	FN263372	56	13.424	49.677	4	0.071	1.268	20	0.357
AM265639	MK962640	57	13.36	44.312	8	0.14	1.263	18	0.316
MH622912	FN263372	7	13.231	0.0	0	0.0	0.571	2	0.286
MK962640	KY117485	50	12.995	48.594	11	0.22	1.12	14	0.28
MH979674	AB854109	56	12.747	46.259	7	0.125	1.107	18	0.321
MH622912	AM265639	7	12.181	0.0	0	0.0	0.714	2	0.286
KY117485	MK962640	56	11.621	48.687	11	0.196	1.393	14	0.25
MH622912	MK892842	7	11.071	0.0	0	0.0	0.571	2	0.286
MH622912	MK962640	7	11.012	0.0	0	0.0	0.714	2	0.286
MK892842	AM265639	47	10.314	0.0	0	0.0	0.723	13	0.277
AM265639	MK892842	57	8.505	0.0	0	0.0	0.632	13	0.228
MK892842	MK962640	47	7.539	0.0	0	0.0	0.936	9	0.191
MK892842	MH979674	47	7.218	0.0	0	0.0	0.638	10	0.213
MK962640	MK892842	50	7.142	0.0	0	0.0	0.8	9	0.18
MH622912	MH979674	7	6.803	0.0	0	0.0	0.429	1	0.143
MH979674	MK892842	56	6.127	0.0	0	0.0	0.679	10	0.179
MK892842	query_MN844877	47	5.843	0.0	0	0.0	0.574	8	0.17
MK892842	MN844877	47	5.843	0.0	0	0.0	0.574	8	0.17
MK892842	KY117485	47	5.502	0.0	0	0.0	0.638	8	0.17
query_MN844877	MK892842	50	5.493	0.0	0	0.0	0.66	8	0.16
MN844877	MK892842	50	5.493	0.0	0	0.0	0.66	8	0.16
KY117485	MK892842	56	4.59	0.0	0	0.0	0.518	8	0.143
MH622912	query_MN844877	7	4.329	0.0	0	0.0	0.429	1	0.143
MH622912	MN844877	7	4.329	0.0	0	0.0	0.429	1	0.143
MK892842	FN263372	47	3.4	0.0	0	0.0	0.532	5	0.106
MH622912	KY117485	7	3.095	0.0	0	0.0	0.429	1	0.143
FN263372	MK892842	53	3.015	0.0	0	0.0	0.717	5	0.094
MK892842	AB854109	47	2.987	0.0	0	0.0	0.617	3	0.064
AB854109	MK892842	50	2.807	0.0	0	0.0	0.68	3	0.06
AB854109	MH622912	50	2.193	0.0	0	0.0	0.1	3	0.06
FN263372	MH622912	53	1.748	0.0	0	0.0	0.075	2	0.038
MK892842	MH622912	47	1.649	0.0	0	0.0	0.085	2	0.043
MK962640	MH622912	50	1.542	0.0	0	0.0	0.08	2	0.04
AM265639	MH622912	57	1.496	0.0	0	0.0	0.105	2	0.035
MH979674	MH622912	56	0.85	0.0	0	0.0	0.089	1	0.018
query_MN844877	MH622912	50	0.606	0.0	0	0.0	0.06	1	0.02
MN844877	MH622912	50	0.606	0.0	0	0.0	0.06	1	0.02
KY117485	MH622912	56	0.387	0.0	0	0.0	0.036	1	0.018
