taxid	upid	accession
295027	UP000000938	AY446894
212035	UP000001134	AY653733
176652	UP000001359	AF303741
654903	UP000007021	AY509253
10389	UP000008072	AF243438
10665	UP000009087	AF158101
561444	UP000000858	AY261366
10360	UP000008991	X17403
561443	UP000000859	AY261363
561445	UP000000861	AY261360
